0 1495 0x02 0x01 0x36
1 1007 0x02 0x01 0x36
2 1526 0x02 0x01 0x36
3 885 0x01 0x01 0x36
4 794 0x01 0x01 0x36
5 946 0x01 0x01 0x36
6 793 0x01 0x01 0x36
7 1099 0x01 0x01 0x36
8 824 0x01 0x01 0x36
10 0 0x03 0x02 0x36
11 1282 0x03 0x02 0x36
12 1160 0x03 0x02 0x36
13 1160 0x03 0x02 0x36
14 1220 0x03 0x02 0x36
15 1129 0x03 0x02 0x36
16 1130 0x01 0x02 0x35
17 1098 0x01 0x02 0x35
18 1099 0x01 0x02 0x35
19 1098 0x01 0x02 0x35
20 1069 0x01 0x02 0x35
21 1160 0x01 0x02 0x35
22 1129 0x01 0x02 0x35
23 1098 0x01 0x02 0x35
24 1099 0x01 0x02 0x35
25 1099 0x02 0x01 0x36
26 1098 0x02 0x01 0x36
27 1069 0x02 0x01 0x36
28 1160 0x02 0x01 0x36
29 1068 0x02 0x01 0x36
30 1098 0x02 0x01 0x36
31 1099 0x02 0x01 0x36
32 1068 0x02 0x01 0x36
33 1129 0x02 0x01 0x36
34 1099 0x01 0x01 0x35
35 1190 0x01 0x01 0x35
36 1098 0x01 0x01 0x35
37 1098 0x01 0x01 0x35
38 1099 0x01 0x01 0x35
39 1099 0x01 0x01 0x35
40 1098 0x01 0x01 0x35
41 1099 0x01 0x01 0x35
42 1160 0xff 0x01 0x35
43 1129 0xff 0x01 0x35
44 1098 0xff 0x01 0x35
45 1099 0xff 0x01 0x35
46 1099 0xff 0x01 0x35
47 1068 0xff 0x01 0x35
48 1098 0xff 0x01 0x35
49 1191 0xff 0x01 0x35
50 1129 0xff 0x01 0x35
51 1098 0x01 0x01 0x34
52 1099 0x01 0x01 0x34
53 1129 0x01 0x01 0x34
54 1068 0x01 0x01 0x34
55 1099 0x01 0x01 0x34
56 1160 0x01 0x01 0x34
57 1129 0x01 0x01 0x34
58 1098 0x01 0x01 0x34
59 1068 0x01 0x01 0x34
60 1129 0x01 0x00 0x35
61 1099 0x01 0x00 0x35
62 885 0x01 0x00 0x35
63 1068 0x01 0x00 0x35
64 1373 0x01 0x00 0x35
65 1099 0x01 0x00 0x35
66 1099 0x01 0x00 0x35
67 1098 0x01 0x00 0x35
68 1099 0x01 0x00 0x35
69 1098 0x01 0x00 0x36
70 1313 0x01 0x00 0x36
71 946 0x01 0x00 0x36
72 1343 0x01 0x00 0x36
73 1159 0x01 0x00 0x36
74 1099 0x01 0x00 0x36
75 1129 0x01 0x00 0x36
76 1099 0x01 0x00 0x36
77 1159 0x01 0x00 0x36
78 1129 0x01 0x00 0x36
79 1099 0x01 0x00 0x36
80 1129 0x01 0x00 0x36
81 1098 0x01 0x00 0x36
82 1068 0x01 0x00 0x36
83 1099 0x01 0x00 0x36
84 1190 0x01 0x00 0x36
85 1129 0x01 0x00 0x36
86 1099 0x01 0x02 0x36
87 1098 0x01 0x02 0x36
88 1160 0x01 0x02 0x36
89 1099 0x01 0x02 0x36
90 1526 0x01 0x02 0x36
91 1221 0x01 0x02 0x36
92 1159 0x01 0x02 0x36
93 1129 0x01 0x02 0x36
94 1069 0x02 0x00 0x36
95 1129 0x02 0x00 0x36
96 1068 0x02 0x00 0x36
97 1098 0x02 0x00 0x36
98 1191 0x02 0x00 0x36
99 1098 0x02 0x00 0x36
